Final Open Data Assignment
…
Edu2.FM = Edu2.F / Edu2.M Labo.FM = Labo2.F / Labo2.M

Methods

Exploring the human data set with a focus on the Adolescent birth rate and its relationship between Parli.F = Percetange of female representatives in parliament,Life.Exp = Life expectancy at birth, andEdu.Exp = Expected years of schooling. Visulization with ggplot and corrplot. Analysis with regression model and fitted regression model. Validation with The Residuals vs.Fitted plot, The Normal Q-Q Plot, and The Residuals vs.Leverage Plot.

Visualization

human2=group_by(human,Ado.Birth)
tab_sum=summarise(human2,count=n(),Edu.Exp=sum(Edu.Exp),Parli.F=sum(Parli.F),Life.Exp=sum(Life.Exp))
tab_sum=mutate(tab_sum,Edu_count=Edu.Exp/count,Par_count=Parli.F/count,Life_count=Life.Exp/count)
tab_sum

## # A tibble: 139 x 8
##    Ado.Birth count Edu.Exp Parli.F Life.Exp Edu_count Par_count Life_count
##        <dbl> <int>   <dbl>   <dbl>    <dbl>     <dbl>     <dbl>      <dbl>
##  1       0.6     1    16.8    27.7     80.4      16.8      27.7       80.4
##  2       1.9     1    15.8    28.5     83.0      15.8      28.5       83.0
##  3       2.2     1    16.9    16.3     81.9      16.9      16.3       81.9
##  4       2.5     1    14.0    16.0     71.6      14.0      16.0       71.6
##  5       3.8     1    16.5    36.9     80.9      16.5      36.9       80.9
##  6       4.0     1    16.0    30.1     83.1      16.0      30.1       83.1
##  7       4.1     1    15.7    30.3     81.4      15.7      30.3       81.4
##  8       4.2     1    13.0     5.9     76.8      13.0       5.9       76.8
##  9       4.6     1    14.6    31.3     74.8      14.6      31.3       74.8
## 10       4.9     1    16.4    18.9     78.6      16.4      18.9       78.6
## # ... with 129 more rows
…
